aiohttp==3.8.4
aiosignal==1.3.1
aircv==1.4.6
allure-pytest==2.9.43
allure-python-commons==2.9.43
altgraph==0.17
async-timeout==4.0.2
asynctest==0.13.0
atomicwrites==1.3.0
attrs==19.3.0
backcall==0.1.0
bcrypt==3.1.7
beautifulsoup4==4.9.3
bs4==0.0.1
certifi==2019.11.28
cffi==1.14.0
chardet==3.0.4
charset-normalizer==3.1.0
colorama==0.4.3
common==0.1.2
comtypes==1.1.10
config==0.5.0.post0
crypto==1.4.1
cryptography==2.8
dbConnect==2.1
decorator==4.4.2
django-os-geocoder==0.1.6
et-xmlfile==1.0.1
execnet==1.9.0
fake-useragent==0.1.11
frozenlist==1.3.3
future==0.18.2
idna==2.9
importlib-metadata==1.5.2
iniconfig==1.1.1
ipython==7.13.0
ipython-genutils==0.2.0
itchat==1.2.32
jdcal==1.4.1
jedi==0.17.0
jsonpath==0.82.2
lxml==4.5.1
more-itertools==8.2.0
MouseInfo==0.1.3
multidict==6.0.4
mysql-connector-python==8.0.32
Naked==0.1.31
numpy==1.18.2
openai==0.27.8
opencv-python==4.4.0.44
openpyxl==3.0.3
packaging==20.3
paramiko==2.7.1
params==0.9.0
parso==0.7.0
pefile==2019.4.18
pickleshare==0.7.5
Pillow==7.0.0
playsound==1.3.0
pluggy==0.13.1
progressbar==2.5
prompt-toolkit==3.0.5
py==1.8.1
PyAutoGUI==0.9.50
pycparser==2.20
pycryptodome==3.9.8
PyExecJS==1.5.1
PyGetWindow==0.0.8
Pygments==2.6.1
pyinstaller==4.2
pyinstaller-hooks-contrib==2020.11
PyMsgBox==1.0.7
PyMySQL==0.9.3
PyNaCl==1.3.0
pyparsing==2.4.6
pyperclip==1.8.0
pypinyin==0.37.0
pypng==0.0.20
PyQRCode==1.2.1
PyRect==0.1.4
PyScreeze==0.1.26
pytesseract==0.3.3
pytest==5.4.1
pytest-forked==1.3.0
pytest-html==3.1.1
pytest-metadata==1.11.0
pytest-ordering==0.6
pytest-rerunfailures==10.0
pytest-xdist==2.3.0
PyTweening==1.0.3
pywifi==1.1.12
pywin32==227
pywin32-ctypes==0.2.0
PyYAML==5.3.1
requests==2.24.0
ruamel.appconfig==0.5.4
ruamel.std.argparse==0.8.1
ruamel.yaml==0.16.10
ruamel.yaml.clib==0.2.0
selenium==3.141.0
shellescape==3.8.1
six==1.14.0
soupsieve==2.4.1
South==1.0.2
sshtunnel==0.1.5
tesserocr==2.4.0
toml==0.10.2
tornado==6.1
tqdm==4.60.0
traitlets==4.3.3
typing-extensions==4.7.1
urllib3==1.25.8
wcwidth==0.1.9
wrapcache==1.0.8
wxpy==0.3.9.8
xlrd==1.2.0
xlutils==2.0.0
xlwt==1.3.0
yaml-1.3==0.1.0
yarl==1.9.2
zipp==3.1.0
